Hyperparameter-Tuning – swalsh36.github.io
…
collect_metrics(model_params)

# A tibble: 75 × 8
    mtry min_n .metric .estimator  mean     n std_err .config              
   <int> <int> <chr>   <chr>      <dbl> <int>   <dbl> <chr>                
 1     6    15 mae     standard   0.715     1      NA Preprocessor1_Model01
 2     6    15 rmse    standard   1.21      1      NA Preprocessor1_Model01
 3     6    15 rsq     standard   0.837     1      NA Preprocessor1_Model01
 4    16    21 mae     standard   0.520     1      NA Preprocessor1_Model02
 5    16    21 rmse    standard   0.952     1      NA Preprocessor1_Model02
 6    16    21 rsq     standard   0.875     1      NA Preprocessor1_Model02
 7    32     5 mae     standard   0.391     1      NA Preprocessor1_Model03
 8    32     5 rmse    standard   0.791     1      NA Preprocessor1_Model03
 9    32     5 rsq     standard   0.899     1      NA Preprocessor1_Model03
10    40    28 mae     standard   0.443     1      NA Preprocessor1_Model04
# ℹ 65 more rows
…
